certifi==2020.12.5
chardet==4.0.0
click==8.0.1
Flask==2.0.1
Flask-Cors==3.0.10
idna==2.10
itsdangerous==2.0.1
Jinja2==3.0.1
MarkupSafe==2.0.1
mpmath==1.2.1
orjson==3.5.2
Pillow==8.2.0
requests==2.25.1
rfc3986==1.4.0
six==1.16.0
sympy==1.8
urllib3==1.26.4
Werkzeug==2.0.1
